var __assign = this && this.__assign || function() {
  __assign = Object.assign || function(r) {
    for (var a, o = 1, i = arguments.length; o < i; o++) {
      a = arguments[o];
      for (var n in a) if (Object.prototype.hasOwnProperty.call(a, n)) r[n] = a[n];
    }
    return r;
  };
  return __assign.apply(this, arguments);
};

var __awaiter = this && this.__awaiter || function(r, a, o, i) {
  function adopt(r) {
    return r instanceof o ? r : new o((function(a) {
      a(r);
    }));
  }
  return new (o || (o = Promise))((function(o, n) {
    function fulfilled(r) {
      try {
        step(i.next(r));
      } catch (r) {
        n(r);
      }
    }
    function rejected(r) {
      try {
        step(i["throw"](r));
      } catch (r) {
        n(r);
      }
    }
    function step(r) {
      r.done ? o(r.value) : adopt(r.value).then(fulfilled, rejected);
    }
    step((i = i.apply(r, a || [])).next());
  }));
};

var __generator = this && this.__generator || function(r, a) {
  var o = {
    label: 0,
    sent: function() {
      if (v[0] & 1) throw v[1];
      return v[1];
    },
    trys: [],
    ops: []
  }, i, n, v, g;
  return g = {
    next: verb(0),
    throw: verb(1),
    return: verb(2)
  }, typeof Symbol === "function" && (g[Symbol.iterator] = function() {
    return this;
  }), g;
  function verb(r) {
    return function(a) {
      return step([ r, a ]);
    };
  }
  function step(d) {
    if (i) throw new TypeError("Generator is already executing.");
    while (g && (g = 0, d[0] && (o = 0)), o) try {
      if (i = 1, n && (v = d[0] & 2 ? n["return"] : d[0] ? n["throw"] || ((v = n["return"]) && v.call(n), 
      0) : n.next) && !(v = v.call(n, d[1])).done) return v;
      if (n = 0, v) d = [ d[0] & 2, v.value ];
      switch (d[0]) {
       case 0:
       case 1:
        v = d;
        break;

       case 4:
        o.label++;
        return {
          value: d[1],
          done: false
        };

       case 5:
        o.label++;
        n = d[1];
        d = [ 0 ];
        continue;

       case 7:
        d = o.ops.pop();
        o.trys.pop();
        continue;

       default:
        if (!(v = o.trys, v = v.length > 0 && v[v.length - 1]) && (d[0] === 6 || d[0] === 2)) {
          o = 0;
          continue;
        }
        if (d[0] === 3 && (!v || d[1] > v[0] && d[1] < v[3])) {
          o.label = d[1];
          break;
        }
        if (d[0] === 6 && o.label < v[1]) {
          o.label = v[1];
          v = d;
          break;
        }
        if (v && o.label < v[2]) {
          o.label = v[2];
          o.ops.push(d);
          break;
        }
        if (v[2]) o.ops.pop();
        o.trys.pop();
        continue;
      }
      d = a.call(r, o);
    } catch (r) {
      d = [ 6, r ];
      n = 0;
    } finally {
      i = v = 0;
    }
    if (d[0] & 5) throw d[1];
    return {
      value: d[0] ? d[1] : void 0,
      done: true
    };
  }
};

/*!
 * Construído com @govbr-ds/webcomponents
 */ System.register([ "./p-decd85ee.system.js" ], (function(r) {
  "use strict";
  var a, o, i, n, v;
  return {
    setters: [ function(r) {
      a = r.r;
      o = r.c;
      i = r.g;
      n = r.h;
      v = r.a;
    } ],
    execute: function() {
      var g = "*,:after,:before{-webkit-box-sizing:border-box;box-sizing:border-box}:host{line-height:var(--font-line-height-medium);-webkit-text-size-adjust:100%;-moz-text-size-adjust:100%;-ms-text-size-adjust:100%;text-size-adjust:100%}a{background-color:transparent}strong{font-weight:bolder}small{font-size:80%}img{border-style:none}button,input,select,textarea{font-family:inherit;font-size:100%;line-height:var(--font-line-height-medium);margin:0}button,input{overflow:visible}button,select{text-transform:none}[type=button],[type=reset],[type=submit],button{-webkit-appearance:button;-moz-appearance:button;appearance:button}[type=button]::-moz-focus-inner,[type=reset]::-moz-focus-inner,[type=submit]::-moz-focus-inner,button::-moz-focus-inner{border-style:none;padding:0}[type=button]:-moz-focusring,[type=reset]:-moz-focusring,[type=submit]:-moz-focusring,button:-moz-focusring{outline:1px dotted ButtonText}textarea{overflow:auto}[type=checkbox],[type=radio]{-webkit-box-sizing:border-box;box-sizing:border-box;padding:0}[type=number]::-webkit-inner-spin-button,[type=number]::-webkit-outer-spin-button{height:auto}[type=search]{-webkit-appearance:textfield;-moz-appearance:textfield;appearance:textfield;outline-offset:-2px}[type=search]::-webkit-search-decoration{-webkit-appearance:none;appearance:none}::-webkit-file-upload-button{-webkit-appearance:button;appearance:button;font:inherit}[hidden]{display:none}.d-flex{display:-webkit-box!important;display:-ms-flexbox!important;display:flex!important}.align-items-center{-webkit-box-align:center!important;-ms-flex-align:center!important;align-items:center!important}.col,[class*=col-]{padding-left:calc(var(--grid-gutter)*.5);padding-right:calc(var(--grid-gutter)*.5);width:100%}.col{-webkit-box-flex:1;-ms-flex:1 0 0%;flex:1 0 0%;min-width:8.3333333333%}.col-auto{-webkit-box-flex:0;-ms-flex:0 0 auto;flex:0 0 auto;width:auto}.row{--grid-gutter:var(--grid-portrait-gutter);display:-webkit-box;display:-ms-flexbox;display:flex;-ms-flex-wrap:wrap;flex-wrap:wrap;margin-left:calc(var(--grid-gutter)*-.5);margin-right:calc(var(--grid-gutter)*-.5)}@media (min-width:576px){.row{--grid-gutter:var(--grid-tablet-gutter)}}@media (min-width:992px){.row{--grid-gutter:var(--grid-tablet-gutter)}}@media (min-width:1280px){.row{--grid-gutter:var(--grid-desktop-gutter)}}@media (min-width:1600px){.row{--grid-gutter:var(--grid-tv-gutter)}}.mt-1{margin-top:var(--spacing-scale-half)!important}.mr-1{margin-right:var(--spacing-scale-half)!important}.mb-1{margin-bottom:var(--spacing-scale-half)!important}.mr-n2{margin-right:calc(var(--spacing-scale-base)*-1)!important}.ml-2{margin-left:var(--spacing-scale-base)!important}.mb-3{margin-bottom:var(--spacing-scale-2x)!important}.mr-auto{margin-right:auto!important}.pt-half{padding-top:var(--spacing-scale-half)!important}.py-3{padding-bottom:var(--spacing-scale-2x)!important;padding-top:var(--spacing-scale-2x)!important}.py-4{padding-bottom:var(--spacing-scale-3x)!important;padding-top:var(--spacing-scale-3x)!important}p{color:var(--color);font-size:var(--font-size-scale-base);font-weight:var(--font-weight-regular);line-height:var(--font-line-height-medium);margin-bottom:var(--spacing-scale-2x);margin-top:0}p a{text-decoration:underline}@media (min-width:576px){p{font-size:var(--font-size-scale-up-01)}}a{--focus-offset:var(--spacing-scale-half);color:var(--interactive);text-decoration:none}a:focus{outline:none}a:focus-visible{outline-color:var(--focus);outline-offset:var(--focus-offset);outline-style:var(--focus-style);outline-width:var(--focus-width)}a:not(:disabled):hover{background-image:-webkit-gradient(linear,left top,left bottom,from(rgba(var(--interactive-rgb),var(--hover))),to(rgba(var(--interactive-rgb),var(--hover))));background-image:-webkit-gradient(linear,left top, left bottom,from(rgba(var(--interactive-rgb),var(--hover))),to(rgba(var(--interactive-rgb),var(--hover))));background-image:linear-gradient(rgba(var(--interactive-rgb),var(--hover)),rgba(var(--interactive-rgb),var(--hover)))}a:not(:disabled):active{background-image:-webkit-gradient(linear,left top,left bottom,from(rgba(var(--interactive-rgb),var(--pressed))),to(rgba(var(--interactive-rgb),var(--pressed))));background-image:-webkit-gradient(linear,left top, left bottom,from(rgba(var(--interactive-rgb),var(--pressed))),to(rgba(var(--interactive-rgb),var(--pressed))));background-image:linear-gradient(rgba(var(--interactive-rgb),var(--pressed)),rgba(var(--interactive-rgb),var(--pressed)))}button{cursor:pointer}img{max-width:100%;vertical-align:middle}.label,label{color:var(--color);font-size:var(--font-size-scale-base);font-weight:var(--font-weight-semi-bold);line-height:var(--font-line-height-medium);margin-bottom:var(--spacing-scale-half)}::-webkit-input-placeholder{color:var(--color-light);font-size:var(--font-size-scale-base);font-style:italic;font-weight:var(--font-weight-regular);line-height:var(--font-line-height-medium);margin-bottom:var(--spacing-scale-half);margin-top:var(--spacing-scale-half);opacity:1}::-moz-placeholder{color:var(--color-light);font-size:var(--font-size-scale-base);font-style:italic;font-weight:var(--font-weight-regular);line-height:var(--font-line-height-medium);margin-bottom:var(--spacing-scale-half);margin-top:var(--spacing-scale-half);opacity:1}::-ms-input-placeholder{color:var(--color-light);font-size:var(--font-size-scale-base);font-style:italic;font-weight:var(--font-weight-regular);line-height:var(--font-line-height-medium);margin-bottom:var(--spacing-scale-half);margin-top:var(--spacing-scale-half);opacity:1}:-ms-input-placeholder{color:var(--color-light);font-size:var(--font-size-scale-base);font-style:italic;font-weight:var(--font-weight-regular);line-height:var(--font-line-height-medium);margin-bottom:var(--spacing-scale-half);margin-top:var(--spacing-scale-half);opacity:1}.placeholder,::placeholder{color:var(--color-light);font-size:var(--font-size-scale-base);font-style:italic;font-weight:var(--font-weight-regular);line-height:var(--font-line-height-medium);margin-bottom:var(--spacing-scale-half);margin-top:var(--spacing-scale-half);opacity:1}.input,input,textarea{color:var(--color-light);font-size:var(--font-size-scale-up-01);font-weight:var(--font-weight-medium);line-height:var(--font-line-height-low);margin-bottom:var(--spacing-scale-half)}.bg-blue-90{--background:var(--blue-90);background:var(--blue-90)!important}.bg-blue-80{--background:var(--blue-80);background:var(--blue-80)!important}.bg-blue-70{--background:var(--blue-70);background:var(--blue-70)!important}.bg-blue-60{--background:var(--blue-60);background:var(--blue-60)!important}.bg-blue-50{--background:var(--blue-50);background:var(--blue-50)!important}.bg-blue-40{--background:var(--blue-40);background:var(--blue-40)!important}.bg-blue-30{--background:var(--blue-30);background:var(--blue-30)!important}.bg-blue-20{--background:var(--blue-20);background:var(--blue-20)!important}.bg-blue-10{--background:var(--blue-10);background:var(--blue-10)!important}.bg-blue-5{--background:var(--blue-5);background:var(--blue-5)!important}.bg-blue-cool-90{--background:var(--blue-cool-90);background:var(--blue-cool-90)!important}.bg-blue-cool-80{--background:var(--blue-cool-80);background:var(--blue-cool-80)!important}.bg-blue-cool-70{--background:var(--blue-cool-70);background:var(--blue-cool-70)!important}.bg-blue-cool-60{--background:var(--blue-cool-60);background:var(--blue-cool-60)!important}.bg-blue-cool-50{--background:var(--blue-cool-50);background:var(--blue-cool-50)!important}.bg-blue-cool-40{--background:var(--blue-cool-40);background:var(--blue-cool-40)!important}.bg-blue-cool-30{--background:var(--blue-cool-30);background:var(--blue-cool-30)!important}.bg-blue-cool-20{--background:var(--blue-cool-20);background:var(--blue-cool-20)!important}.bg-blue-cool-10{--background:var(--blue-cool-10);background:var(--blue-cool-10)!important}.bg-blue-cool-5{--background:var(--blue-cool-5);background:var(--blue-cool-5)!important}.bg-blue-warm-90{--background:var(--blue-warm-90);background:var(--blue-warm-90)!important}.bg-blue-warm-80{--background:var(--blue-warm-80);background:var(--blue-warm-80)!important}.bg-blue-warm-70{--background:var(--blue-warm-70);background:var(--blue-warm-70)!important}.bg-blue-warm-60{--background:var(--blue-warm-60);background:var(--blue-warm-60)!important}.bg-blue-warm-50{--background:var(--blue-warm-50);background:var(--blue-warm-50)!important}.bg-blue-warm-40{--background:var(--blue-warm-40);background:var(--blue-warm-40)!important}.bg-blue-warm-30{--background:var(--blue-warm-30);background:var(--blue-warm-30)!important}.bg-blue-warm-20{--background:var(--blue-warm-20);background:var(--blue-warm-20)!important}.bg-blue-warm-10{--background:var(--blue-warm-10);background:var(--blue-warm-10)!important}.bg-blue-warm-5{--background:var(--blue-warm-5);background:var(--blue-warm-5)!important}.bg-blue-vivid-80{--background:var(--blue-vivid-80);background:var(--blue-vivid-80)!important}.bg-blue-vivid-70{--background:var(--blue-vivid-70);background:var(--blue-vivid-70)!important}.bg-blue-vivid-60{--background:var(--blue-vivid-60);background:var(--blue-vivid-60)!important}.bg-blue-vivid-50{--background:var(--blue-vivid-50);background:var(--blue-vivid-50)!important}.bg-blue-vivid-40{--background:var(--blue-vivid-40);background:var(--blue-vivid-40)!important}.bg-blue-vivid-30{--background:var(--blue-vivid-30);background:var(--blue-vivid-30)!important}.bg-blue-vivid-20{--background:var(--blue-vivid-20);background:var(--blue-vivid-20)!important}.bg-blue-vivid-10{--background:var(--blue-vivid-10);background:var(--blue-vivid-10)!important}.bg-blue-vivid-5{--background:var(--blue-vivid-5);background:var(--blue-vivid-5)!important}.bg-blue-cool-vivid-80{--background:var(--blue-cool-vivid-80);background:var(--blue-cool-vivid-80)!important}.bg-blue-cool-vivid-70{--background:var(--blue-cool-vivid-70);background:var(--blue-cool-vivid-70)!important}.bg-blue-cool-vivid-60{--background:var(--blue-cool-vivid-60);background:var(--blue-cool-vivid-60)!important}.bg-blue-cool-vivid-50{--background:var(--blue-cool-vivid-50);background:var(--blue-cool-vivid-50)!important}.bg-blue-cool-vivid-40{--background:var(--blue-cool-vivid-40);background:var(--blue-cool-vivid-40)!important}.bg-blue-cool-vivid-30{--background:var(--blue-cool-vivid-30);background:var(--blue-cool-vivid-30)!important}.bg-blue-cool-vivid-20{--background:var(--blue-cool-vivid-20);background:var(--blue-cool-vivid-20)!important}.bg-blue-cool-vivid-10{--background:var(--blue-cool-vivid-10);background:var(--blue-cool-vivid-10)!important}.bg-blue-cool-vivid-5{--background:var(--blue-cool-vivid-5);background:var(--blue-cool-vivid-5)!important}.bg-blue-warm-vivid-90{--background:var(--blue-warm-vivid-90);background:var(--blue-warm-vivid-90)!important}.bg-blue-warm-vivid-80{--background:var(--blue-warm-vivid-80);background:var(--blue-warm-vivid-80)!important}.bg-blue-warm-vivid-70{--background:var(--blue-warm-vivid-70);background:var(--blue-warm-vivid-70)!important}.bg-blue-warm-vivid-60{--background:var(--blue-warm-vivid-60);background:var(--blue-warm-vivid-60)!important}.bg-blue-warm-vivid-50{--background:var(--blue-warm-vivid-50);background:var(--blue-warm-vivid-50)!important}.bg-blue-warm-vivid-40{--background:var(--blue-warm-vivid-40);background:var(--blue-warm-vivid-40)!important}.bg-blue-warm-vivid-30{--background:var(--blue-warm-vivid-30);background:var(--blue-warm-vivid-30)!important}.bg-blue-warm-vivid-20{--background:var(--blue-warm-vivid-20);background:var(--blue-warm-vivid-20)!important}.bg-blue-warm-vivid-10{--background:var(--blue-warm-vivid-10);background:var(--blue-warm-vivid-10)!important}.bg-blue-warm-vivid-5{--background:var(--blue-warm-vivid-5);background:var(--blue-warm-vivid-5)!important}.bg-cyan-90{--background:var(--cyan-90);background:var(--cyan-90)!important}.bg-cyan-80{--background:var(--cyan-80);background:var(--cyan-80)!important}.bg-cyan-70{--background:var(--cyan-70);background:var(--cyan-70)!important}.bg-cyan-60{--background:var(--cyan-60);background:var(--cyan-60)!important}.bg-cyan-50{--background:var(--cyan-50);background:var(--cyan-50)!important}.bg-cyan-40{--background:var(--cyan-40);background:var(--cyan-40)!important}.bg-cyan-30{--background:var(--cyan-30);background:var(--cyan-30)!important}.bg-cyan-20{--background:var(--cyan-20);background:var(--cyan-20)!important}.bg-cyan-10{--background:var(--cyan-10);background:var(--cyan-10)!important}.bg-cyan-5{--background:var(--cyan-5);background:var(--cyan-5)!important}.bg-cyan-vivid-80{--background:var(--cyan-vivid-80);background:var(--cyan-vivid-80)!important}.bg-cyan-vivid-70{--background:var(--cyan-vivid-70);background:var(--cyan-vivid-70)!important}.bg-cyan-vivid-60{--background:var(--cyan-vivid-60);background:var(--cyan-vivid-60)!important}.bg-cyan-vivid-50{--background:var(--cyan-vivid-50);background:var(--cyan-vivid-50)!important}.bg-cyan-vivid-40{--background:var(--cyan-vivid-40);background:var(--cyan-vivid-40)!important}.bg-cyan-vivid-30{--background:var(--cyan-vivid-30);background:var(--cyan-vivid-30)!important}.bg-cyan-vivid-20{--background:var(--cyan-vivid-20);background:var(--cyan-vivid-20)!important}.bg-cyan-vivid-10{--background:var(--cyan-vivid-10);background:var(--cyan-vivid-10)!important}.bg-cyan-vivid-5{--background:var(--cyan-vivid-5);background:var(--cyan-vivid-5)!important}.bg-gold-90{--background:var(--gold-90);background:var(--gold-90)!important}.bg-gold-80{--background:var(--gold-80);background:var(--gold-80)!important}.bg-gold-70{--background:var(--gold-70);background:var(--gold-70)!important}.bg-gold-60{--background:var(--gold-60);background:var(--gold-60)!important}.bg-gold-50{--background:var(--gold-50);background:var(--gold-50)!important}.bg-gold-40{--background:var(--gold-40);background:var(--gold-40)!important}.bg-gold-30{--background:var(--gold-30);background:var(--gold-30)!important}.bg-gold-20{--background:var(--gold-20);background:var(--gold-20)!important}.bg-gold-10{--background:var(--gold-10);background:var(--gold-10)!important}.bg-gold-5{--background:var(--gold-5);background:var(--gold-5)!important}.bg-gold-vivid-80{--background:var(--gold-vivid-80);background:var(--gold-vivid-80)!important}.bg-gold-vivid-70{--background:var(--gold-vivid-70);background:var(--gold-vivid-70)!important}.bg-gold-vivid-60{--background:var(--gold-vivid-60);background:var(--gold-vivid-60)!important}.bg-gold-vivid-50{--background:var(--gold-vivid-50);background:var(--gold-vivid-50)!important}.bg-gold-vivid-40{--background:var(--gold-vivid-40);background:var(--gold-vivid-40)!important}.bg-gold-vivid-30{--background:var(--gold-vivid-30);background:var(--gold-vivid-30)!important}.bg-gold-vivid-20{--background:var(--gold-vivid-20);background:var(--gold-vivid-20)!important}.bg-gold-vivid-10{--background:var(--gold-vivid-10);background:var(--gold-vivid-10)!important}.bg-gold-vivid-5{--background:var(--gold-vivid-5);background:var(--gold-vivid-5)!important}.bg-gray-90{--background:var(--gray-90);background:var(--gray-90)!important}.bg-gray-80{--background:var(--gray-80);background:var(--gray-80)!important}.bg-gray-70{--background:var(--gray-70);background:var(--gray-70)!important}.bg-gray-60{--background:var(--gray-60);background:var(--gray-60)!important}.bg-gray-50{--background:var(--gray-50);background:var(--gray-50)!important}.bg-gray-40{--background:var(--gray-40);background:var(--gray-40)!important}.bg-gray-30{--background:var(--gray-30);background:var(--gray-30)!important}.bg-gray-20{--background:var(--gray-20);background:var(--gray-20)!important}.bg-gray-10{--background:var(--gray-10);background:var(--gray-10)!important}.bg-gray-5{--background:var(--gray-5);background:var(--gray-5)!important}.bg-gray-4{--background:var(--gray-4);background:var(--gray-4)!important}.bg-gray-3{--background:var(--gray-3);background:var(--gray-3)!important}.bg-gray-2{--background:var(--gray-2);background:var(--gray-2)!important}.bg-gray-1{--background:var(--gray-1);background:var(--gray-1)!important}.bg-gray-cool-90{--background:var(--gray-cool-90);background:var(--gray-cool-90)!important}.bg-gray-cool-80{--background:var(--gray-cool-80);background:var(--gray-cool-80)!important}.bg-gray-cool-70{--background:var(--gray-cool-70);background:var(--gray-cool-70)!important}.bg-gray-cool-60{--background:var(--gray-cool-60);background:var(--gray-cool-60)!important}.bg-gray-cool-50{--background:var(--gray-cool-50);background:var(--gray-cool-50)!important}.bg-gray-cool-40{--background:var(--gray-cool-40);background:var(--gray-cool-40)!important}.bg-gray-cool-30{--background:var(--gray-cool-30);background:var(--gray-cool-30)!important}.bg-gray-cool-20{--background:var(--gray-cool-20);background:var(--gray-cool-20)!important}.bg-gray-cool-10{--background:var(--gray-cool-10);background:var(--gray-cool-10)!important}.bg-gray-cool-5{--background:var(--gray-cool-5);background:var(--gray-cool-5)!important}.bg-gray-cool-4{--background:var(--gray-cool-4);background:var(--gray-cool-4)!important}.bg-gray-cool-3{--background:var(--gray-cool-3);background:var(--gray-cool-3)!important}.bg-gray-cool-2{--background:var(--gray-cool-2);background:var(--gray-cool-2)!important}.bg-gray-cool-1{--background:var(--gray-cool-1);background:var(--gray-cool-1)!important}.bg-gray-warm-90{--background:var(--gray-warm-90);background:var(--gray-warm-90)!important}.bg-gray-warm-80{--background:var(--gray-warm-80);background:var(--gray-warm-80)!important}.bg-gray-warm-70{--background:var(--gray-warm-70);background:var(--gray-warm-70)!important}.bg-gray-warm-60{--background:var(--gray-warm-60);background:var(--gray-warm-60)!important}.bg-gray-warm-50{--background:var(--gray-warm-50);background:var(--gray-warm-50)!important}.bg-gray-warm-40{--background:var(--gray-warm-40);background:var(--gray-warm-40)!important}.bg-gray-warm-30{--background:var(--gray-warm-30);background:var(--gray-warm-30)!important}.bg-gray-warm-20{--background:var(--gray-warm-20);background:var(--gray-warm-20)!important}.bg-gray-warm-10{--background:var(--gray-warm-10);background:var(--gray-warm-10)!important}.bg-gray-warm-5{--background:var(--gray-warm-5);background:var(--gray-warm-5)!important}.bg-gray-warm-4{--background:var(--gray-warm-4);background:var(--gray-warm-4)!important}.bg-gray-warm-3{--background:var(--gray-warm-3);background:var(--gray-warm-3)!important}.bg-gray-warm-2{--background:var(--gray-warm-2);background:var(--gray-warm-2)!important}.bg-gray-warm-1{--background:var(--gray-warm-1);background:var(--gray-warm-1)!important}.bg-green-90{--background:var(--green-90);background:var(--green-90)!important}.bg-green-80{--background:var(--green-80);background:var(--green-80)!important}.bg-green-70{--background:var(--green-70);background:var(--green-70)!important}.bg-green-60{--background:var(--green-60);background:var(--green-60)!important}.bg-green-50{--background:var(--green-50);background:var(--green-50)!important}.bg-green-40{--background:var(--green-40);background:var(--green-40)!important}.bg-green-30{--background:var(--green-30);background:var(--green-30)!important}.bg-green-20{--background:var(--green-20);background:var(--green-20)!important}.bg-green-10{--background:var(--green-10);background:var(--green-10)!important}.bg-green-5{--background:var(--green-5);background:var(--green-5)!important}.bg-green-cool-90{--background:var(--green-cool-90);background:var(--green-cool-90)!important}.bg-green-cool-80{--background:var(--green-cool-80);background:var(--green-cool-80)!important}.bg-green-cool-70{--background:var(--green-cool-70);background:var(--green-cool-70)!important}.bg-green-cool-60{--background:var(--green-cool-60);background:var(--green-cool-60)!important}.bg-green-cool-50{--background:var(--green-cool-50);background:var(--green-cool-50)!important}.bg-green-cool-40{--background:var(--green-cool-40);background:var(--green-cool-40)!important}.bg-green-cool-30{--background:var(--green-cool-30);background:var(--green-cool-30)!important}.bg-green-cool-20{--background:var(--green-cool-20);background:var(--green-cool-20)!important}.bg-green-cool-10{--background:var(--green-cool-10);background:var(--green-cool-10)!important}.bg-green-cool-5{--background:var(--green-cool-5);background:var(--green-cool-5)!important}.bg-green-warm-90{--background:var(--green-warm-90);background:var(--green-warm-90)!important}.bg-green-warm-80{--background:var(--green-warm-80);background:var(--green-warm-80)!important}.bg-green-warm-70{--background:var(--green-warm-70);background:var(--green-warm-70)!important}.bg-green-warm-60{--background:var(--green-warm-60);background:var(--green-warm-60)!important}.bg-green-warm-50{--background:var(--green-warm-50);background:var(--green-warm-50)!important}.bg-green-warm-40{--background:var(--green-warm-40);background:var(--green-warm-40)!important}.bg-green-warm-30{--background:var(--green-warm-30);background:var(--green-warm-30)!important}.bg-green-warm-20{--background:var(--green-warm-20);background:var(--green-warm-20)!important}.bg-green-warm-10{--background:var(--green-warm-10);background:var(--green-warm-10)!important}.bg-green-warm-5{--background:var(--green-warm-5);background:var(--green-warm-5)!important}.bg-green-vivid-80{--background:var(--green-vivid-80);background:var(--green-vivid-80)!important}.bg-green-vivid-70{--background:var(--green-vivid-70);background:var(--green-vivid-70)!important}.bg-green-vivid-60{--background:var(--green-vivid-60);background:var(--green-vivid-60)!important}.bg-green-vivid-50{--background:var(--green-vivid-50);background:var(--green-vivid-50)!important}.bg-green-vivid-40{--background:var(--green-vivid-40);background:var(--green-vivid-40)!important}.bg-green-vivid-30{--background:var(--green-vivid-30);background:var(--green-vivid-30)!important}.bg-green-vivid-20{--background:var(--green-vivid-20);background:var(--green-vivid-20)!important}.bg-green-vivid-10{--background:var(--green-vivid-10);background:var(--green-vivid-10)!important}.bg-green-vivid-5{--background:var(--green-vivid-5);background:var(--green-vivid-5)!important}.bg-green-cool-vivid-80{--background:var(--green-cool-vivid-80);background:var(--green-cool-vivid-80)!important}.bg-green-cool-vivid-70{--background:var(--green-cool-vivid-70);background:var(--green-cool-vivid-70)!important}.bg-green-cool-vivid-60{--background:var(--green-cool-vivid-60);background:var(--green-cool-vivid-60)!important}.bg-green-cool-vivid-50{--background:var(--green-cool-vivid-50);background:var(--green-cool-vivid-50)!important}.bg-green-cool-vivid-40{--background:var(--green-cool-vivid-40);background:var(--green-cool-vivid-40)!important}.bg-green-cool-vivid-30{--background:var(--green-cool-vivid-30);background:var(--green-cool-vivid-30)!important}.bg-green-cool-vivid-20{--background:var(--green-cool-vivid-20);background:var(--green-cool-vivid-20)!important}.bg-green-cool-vivid-10{--background:var(--green-cool-vivid-10);background:var(--green-cool-vivid-10)!important}.bg-green-cool-vivid-5{--background:var(--green-cool-vivid-5);background:var(--green-cool-vivid-5)!important}.bg-green-warm-vivid-80{--background:var(--green-warm-vivid-80);background:var(--green-warm-vivid-80)!important}.bg-green-warm-vivid-70{--background:var(--green-warm-vivid-70);background:var(--green-warm-vivid-70)!important}.bg-green-warm-vivid-60{--background:var(--green-warm-vivid-60);background:var(--green-warm-vivid-60)!important}.bg-green-warm-vivid-50{--background:var(--green-warm-vivid-50);background:var(--green-warm-vivid-50)!important}.bg-green-warm-vivid-40{--background:var(--green-warm-vivid-40);background:var(--green-warm-vivid-40)!important}.bg-green-warm-vivid-30{--background:var(--green-warm-vivid-30);background:var(--green-warm-vivid-30)!important}.bg-green-warm-vivid-20{--background:var(--green-warm-vivid-20);background:var(--green-warm-vivid-20)!important}.bg-green-warm-vivid-10{--background:var(--green-warm-vivid-10);background:var(--green-warm-vivid-10)!important}.bg-green-warm-vivid-5{--background:var(--green-warm-vivid-5);background:var(--green-warm-vivid-5)!important}.bg-indigo-90{--background:var(--indigo-90);background:var(--indigo-90)!important}.bg-indigo-80{--background:var(--indigo-80);background:var(--indigo-80)!important}.bg-indigo-70{--background:var(--indigo-70);background:var(--indigo-70)!important}.bg-indigo-60{--background:var(--indigo-60);background:var(--indigo-60)!important}.bg-indigo-50{--background:var(--indigo-50);background:var(--indigo-50)!important}.bg-indigo-40{--background:var(--indigo-40);background:var(--indigo-40)!important}.bg-indigo-30{--background:var(--indigo-30);background:var(--indigo-30)!important}.bg-indigo-20{--background:var(--indigo-20);background:var(--indigo-20)!important}.bg-indigo-10{--background:var(--indigo-10);background:var(--indigo-10)!important}.bg-indigo-5{--background:var(--indigo-5);background:var(--indigo-5)!important}.bg-indigo-cool-90{--background:var(--indigo-cool-90);background:var(--indigo-cool-90)!important}.bg-indigo-cool-80{--background:var(--indigo-cool-80);background:var(--indigo-cool-80)!important}.bg-indigo-cool-70{--background:var(--indigo-cool-70);background:var(--indigo-cool-70)!important}.bg-indigo-cool-60{--background:var(--indigo-cool-60);background:var(--indigo-cool-60)!important}.bg-indigo-cool-50{--background:var(--indigo-cool-50);background:var(--indigo-cool-50)!important}.bg-indigo-cool-40{--background:var(--indigo-cool-40);background:var(--indigo-cool-40)!important}.bg-indigo-cool-30{--background:var(--indigo-cool-30);background:var(--indigo-cool-30)!important}.bg-indigo-cool-20{--background:var(--indigo-cool-20);background:var(--indigo-cool-20)!important}.bg-indigo-cool-10{--background:var(--indigo-cool-10);background:var(--indigo-cool-10)!important}.bg-indigo-cool-5{--background:var(--indigo-cool-5);background:var(--indigo-cool-5)!important}.bg-indigo-warm-90{--background:var(--indigo-warm-90);background:var(--indigo-warm-90)!important}.bg-indigo-warm-80{--background:var(--indigo-warm-80);background:var(--indigo-warm-80)!important}.bg-indigo-warm-70{--background:var(--indigo-warm-70);background:var(--indigo-warm-70)!important}.bg-indigo-warm-60{--background:var(--indigo-warm-60);background:var(--indigo-warm-60)!important}.bg-indigo-warm-50{--background:var(--indigo-warm-50);background:var(--indigo-warm-50)!important}.bg-indigo-warm-40{--background:var(--indigo-warm-40);background:var(--indigo-warm-40)!important}.bg-indigo-warm-30{--background:var(--indigo-warm-30);background:var(--indigo-warm-30)!important}.bg-indigo-warm-20{--background:var(--indigo-warm-20);background:var(--indigo-warm-20)!important}.bg-indigo-warm-10{--background:var(--indigo-warm-10);background:var(--indigo-warm-10)!important}.bg-indigo-warm-5{--background:var(--indigo-warm-5);background:var(--indigo-warm-5)!important}.bg-indigo-vivid-80{--background:var(--indigo-vivid-80);background:var(--indigo-vivid-80)!important}.bg-indigo-vivid-70{--background:var(--indigo-vivid-70);background:var(--indigo-vivid-70)!important}.bg-indigo-vivid-60{--background:var(--indigo-vivid-60);background:var(--indigo-vivid-60)!important}.bg-indigo-vivid-50{--background:var(--indigo-vivid-50);background:var(--indigo-vivid-50)!important}.bg-indigo-vivid-40{--background:var(--indigo-vivid-40);background:var(--indigo-vivid-40)!important}.bg-indigo-vivid-30{--background:var(--indigo-vivid-30);background:var(--indigo-vivid-30)!important}.bg-indigo-vivid-20{--background:var(--indigo-vivid-20);background:var(--indigo-vivid-20)!important}.bg-indigo-vivid-10{--background:var(--indigo-vivid-10);background:var(--indigo-vivid-10)!important}.bg-indigo-vivid-5{--background:var(--indigo-vivid-5);background:var(--indigo-vivid-5)!important}.bg-indigo-cool-vivid-80{--background:var(--indigo-cool-vivid-80);background:var(--indigo-cool-vivid-80)!important}.bg-indigo-cool-vivid-70{--background:var(--indigo-cool-vivid-70);background:var(--indigo-cool-vivid-70)!important}.bg-indigo-cool-vivid-60{--background:var(--indigo-cool-vivid-60);background:var(--indigo-cool-vivid-60)!important}.bg-indigo-cool-vivid-50{--background:var(--indigo-cool-vivid-50);background:var(--indigo-cool-vivid-50)!important}.bg-indigo-cool-vivid-40{--background:var(--indigo-cool-vivid-40);background:var(--indigo-cool-vivid-40)!important}.bg-indigo-cool-vivid-30{--background:var(--indigo-cool-vivid-30);background:var(--indigo-cool-vivid-30)!important}.bg-indigo-cool-vivid-20{--background:var(--indigo-cool-vivid-20);background:var(--indigo-cool-vivid-20)!important}.bg-indigo-cool-vivid-10{--background:var(--indigo-cool-vivid-10);background:var(--indigo-cool-vivid-10)!important}.bg-indigo-cool-vivid-5{--background:var(--indigo-cool-vivid-5);background:var(--indigo-cool-vivid-5)!important}.bg-indigo-warm-vivid-80{--background:var(--indigo-warm-vivid-80);background:var(--indigo-warm-vivid-80)!important}.bg-indigo-warm-vivid-70{--background:var(--indigo-warm-vivid-70);background:var(--indigo-warm-vivid-70)!important}.bg-indigo-warm-vivid-60{--background:var(--indigo-warm-vivid-60);background:var(--indigo-warm-vivid-60)!important}.bg-indigo-warm-vivid-50{--background:var(--indigo-warm-vivid-50);background:var(--indigo-warm-vivid-50)!important}.bg-indigo-warm-vivid-40{--background:var(--indigo-warm-vivid-40);background:var(--indigo-warm-vivid-40)!important}.bg-indigo-warm-vivid-30{--background:var(--indigo-warm-vivid-30);background:var(--indigo-warm-vivid-30)!important}.bg-indigo-warm-vivid-20{--background:var(--indigo-warm-vivid-20);background:var(--indigo-warm-vivid-20)!important}.bg-indigo-warm-vivid-10{--background:var(--indigo-warm-vivid-10);background:var(--indigo-warm-vivid-10)!important}.bg-indigo-warm-vivid-5{--background:var(--indigo-warm-vivid-5);background:var(--indigo-warm-vivid-5)!important}.bg-magenta-90{--background:var(--magenta-90);background:var(--magenta-90)!important}.bg-magenta-80{--background:var(--magenta-80);background:var(--magenta-80)!important}.bg-magenta-70{--background:var(--magenta-70);background:var(--magenta-70)!important}.bg-magenta-60{--background:var(--magenta-60);background:var(--magenta-60)!important}.bg-magenta-50{--background:var(--magenta-50);background:var(--magenta-50)!important}.bg-magenta-40{--background:var(--magenta-40);background:var(--magenta-40)!important}.bg-magenta-30{--background:var(--magenta-30);background:var(--magenta-30)!important}.bg-magenta-20{--background:var(--magenta-20);background:var(--magenta-20)!important}.bg-magenta-10{--background:var(--magenta-10);background:var(--magenta-10)!important}.bg-magenta-5{--background:var(--magenta-5);background:var(--magenta-5)!important}.bg-magenta-vivid-80{--background:var(--magenta-vivid-80);background:var(--magenta-vivid-80)!important}.bg-magenta-vivid-70{--background:var(--magenta-vivid-70);background:var(--magenta-vivid-70)!important}.bg-magenta-vivid-60{--background:var(--magenta-vivid-60);background:var(--magenta-vivid-60)!important}.bg-magenta-vivid-50{--background:var(--magenta-vivid-50);background:var(--magenta-vivid-50)!important}.bg-magenta-vivid-40{--background:var(--magenta-vivid-40);background:var(--magenta-vivid-40)!important}.bg-magenta-vivid-30{--background:var(--magenta-vivid-30);background:var(--magenta-vivid-30)!important}.bg-magenta-vivid-20{--background:var(--magenta-vivid-20);background:var(--magenta-vivid-20)!important}.bg-magenta-vivid-10{--background:var(--magenta-vivid-10);background:var(--magenta-vivid-10)!important}.bg-magenta-vivid-5{--background:var(--magenta-vivid-5);background:var(--magenta-vivid-5)!important}.bg-mint-90{--background:var(--mint-90);background:var(--mint-90)!important}.bg-mint-80{--background:var(--mint-80);background:var(--mint-80)!important}.bg-mint-70{--background:var(--mint-70);background:var(--mint-70)!important}.bg-mint-60{--background:var(--mint-60);background:var(--mint-60)!important}.bg-mint-50{--background:var(--mint-50);background:var(--mint-50)!important}.bg-mint-40{--background:var(--mint-40);background:var(--mint-40)!important}.bg-mint-30{--background:var(--mint-30);background:var(--mint-30)!important}.bg-mint-20{--background:var(--mint-20);background:var(--mint-20)!important}.bg-mint-10{--background:var(--mint-10);background:var(--mint-10)!important}.bg-mint-5{--background:var(--mint-5);background:var(--mint-5)!important}.bg-mint-cool-90{--background:var(--mint-cool-90);background:var(--mint-cool-90)!important}.bg-mint-cool-80{--background:var(--mint-cool-80);background:var(--mint-cool-80)!important}.bg-mint-cool-70{--background:var(--mint-cool-70);background:var(--mint-cool-70)!important}.bg-mint-cool-60{--background:var(--mint-cool-60);background:var(--mint-cool-60)!important}.bg-mint-cool-50{--background:var(--mint-cool-50);background:var(--mint-cool-50)!important}.bg-mint-cool-40{--background:var(--mint-cool-40);background:var(--mint-cool-40)!important}.bg-mint-cool-30{--background:var(--mint-cool-30);background:var(--mint-cool-30)!important}.bg-mint-cool-20{--background:var(--mint-cool-20);background:var(--mint-cool-20)!important}.bg-mint-cool-10{--background:var(--mint-cool-10);background:var(--mint-cool-10)!important}.bg-mint-cool-5{--background:var(--mint-cool-5);background:var(--mint-cool-5)!important}.bg-mint-vivid-80{--background:var(--mint-vivid-80);background:var(--mint-vivid-80)!important}.bg-mint-vivid-70{--background:var(--mint-vivid-70);background:var(--mint-vivid-70)!important}.bg-mint-vivid-60{--background:var(--mint-vivid-60);background:var(--mint-vivid-60)!important}.bg-mint-vivid-50{--background:var(--mint-vivid-50);background:var(--mint-vivid-50)!important}.bg-mint-vivid-40{--background:var(--mint-vivid-40);background:var(--mint-vivid-40)!important}.bg-mint-vivid-30{--background:var(--mint-vivid-30);background:var(--mint-vivid-30)!important}.bg-mint-vivid-20{--background:var(--mint-vivid-20);background:var(--mint-vivid-20)!important}.bg-mint-vivid-10{--background:var(--mint-vivid-10);background:var(--mint-vivid-10)!important}.bg-mint-vivid-5{--background:var(--mint-vivid-5);background:var(--mint-vivid-5)!important}.bg-mint-cool-vivid-80{--background:var(--mint-cool-vivid-80);background:var(--mint-cool-vivid-80)!important}.bg-mint-cool-vivid-70{--background:var(--mint-cool-vivid-70);background:var(--mint-cool-vivid-70)!important}.bg-mint-cool-vivid-60{--background:var(--mint-cool-vivid-60);background:var(--mint-cool-vivid-60)!important}.bg-mint-cool-vivid-50{--background:var(--mint-cool-vivid-50);background:var(--mint-cool-vivid-50)!important}.bg-mint-cool-vivid-40{--background:var(--mint-cool-vivid-40);background:var(--mint-cool-vivid-40)!important}.bg-mint-cool-vivid-30{--background:var(--mint-cool-vivid-30);background:var(--mint-cool-vivid-30)!important}.bg-mint-cool-vivid-20{--background:var(--mint-cool-vivid-20);background:var(--mint-cool-vivid-20)!important}.bg-mint-cool-vivid-10{--background:var(--mint-cool-vivid-10);background:var(--mint-cool-vivid-10)!important}.bg-mint-cool-vivid-5{--background:var(--mint-cool-vivid-5);background:var(--mint-cool-vivid-5)!important}.bg-orange-90{--background:var(--orange-90);background:var(--orange-90)!important}.bg-orange-80{--background:var(--orange-80);background:var(--orange-80)!important}.bg-orange-70{--background:var(--orange-70);background:var(--orange-70)!important}.bg-orange-60{--background:var(--orange-60);background:var(--orange-60)!important}.bg-orange-50{--background:var(--orange-50);background:var(--orange-50)!important}.bg-orange-40{--background:var(--orange-40);background:var(--orange-40)!important}.bg-orange-30{--background:var(--orange-30);background:var(--orange-30)!important}.bg-orange-20{--background:var(--orange-20);background:var(--orange-20)!important}.bg-orange-10{--background:var(--orange-10);background:var(--orange-10)!important}.bg-orange-5{--background:var(--orange-5);background:var(--orange-5)!important}.bg-orange-warm-90{--background:var(--orange-warm-90);background:var(--orange-warm-90)!important}.bg-orange-warm-80{--background:var(--orange-warm-80);background:var(--orange-warm-80)!important}.bg-orange-warm-70{--background:var(--orange-warm-70);background:var(--orange-warm-70)!important}.bg-orange-warm-60{--background:var(--orange-warm-60);background:var(--orange-warm-60)!important}.bg-orange-warm-50{--background:var(--orange-warm-50);background:var(--orange-warm-50)!important}.bg-orange-warm-40{--background:var(--orange-warm-40);background:var(--orange-warm-40)!important}.bg-orange-warm-30{--background:var(--orange-warm-30);background:var(--orange-warm-30)!important}.bg-orange-warm-20{--background:var(--orange-warm-20);background:var(--orange-warm-20)!important}.bg-orange-warm-10{--background:var(--orange-warm-10);background:var(--orange-warm-10)!important}.bg-orange-warm-5{--background:var(--orange-warm-5);background:var(--orange-warm-5)!important}.bg-orange-vivid-80{--background:var(--orange-vivid-80);background:var(--orange-vivid-80)!important}.bg-orange-vivid-70{--background:var(--orange-vivid-70);background:var(--orange-vivid-70)!important}.bg-orange-vivid-60{--background:var(--orange-vivid-60);background:var(--orange-vivid-60)!important}.bg-orange-vivid-50{--background:var(--orange-vivid-50);background:var(--orange-vivid-50)!important}.bg-orange-vivid-40{--background:var(--orange-vivid-40);background:var(--orange-vivid-40)!important}.bg-orange-vivid-30{--background:var(--orange-vivid-30);background:var(--orange-vivid-30)!important}.bg-orange-vivid-20{--background:var(--orange-vivid-20);background:var(--orange-vivid-20)!important}.bg-orange-vivid-10{--background:var(--orange-vivid-10);background:var(--orange-vivid-10)!important}.bg-orange-vivid-5{--background:var(--orange-vivid-5);background:var(--orange-vivid-5)!important}.bg-orange-warm-vivid-80{--background:var(--orange-warm-vivid-80);background:var(--orange-warm-vivid-80)!important}.bg-orange-warm-vivid-70{--background:var(--orange-warm-vivid-70);background:var(--orange-warm-vivid-70)!important}.bg-orange-warm-vivid-60{--background:var(--orange-warm-vivid-60);background:var(--orange-warm-vivid-60)!important}.bg-orange-warm-vivid-50{--background:var(--orange-warm-vivid-50);background:var(--orange-warm-vivid-50)!important}.bg-orange-warm-vivid-40{--background:var(--orange-warm-vivid-40);background:var(--orange-warm-vivid-40)!important}.bg-orange-warm-vivid-30{--background:var(--orange-warm-vivid-30);background:var(--orange-warm-vivid-30)!important}.bg-orange-warm-vivid-20{--background:var(--orange-warm-vivid-20);background:var(--orange-warm-vivid-20)!important}.bg-orange-warm-vivid-10{--background:var(--orange-warm-vivid-10);background:var(--orange-warm-vivid-10)!important}.bg-orange-warm-vivid-5{--background:var(--orange-warm-vivid-5);background:var(--orange-warm-vivid-5)!important}.bg-pure-100{--background:var(--pure-100);background:var(--pure-100)!important}.bg-pure-0{--background:var(--pure-0);background:var(--pure-0)!important}.text-pure-0{color:var(--pure-0)!important}.bg-red-90{--background:var(--red-90);background:var(--red-90)!important}.bg-red-80{--background:var(--red-80);background:var(--red-80)!important}.bg-red-70{--background:var(--red-70);background:var(--red-70)!important}.bg-red-60{--background:var(--red-60);background:var(--red-60)!important}.bg-red-50{--background:var(--red-50);background:var(--red-50)!important}.bg-red-40{--background:var(--red-40);background:var(--red-40)!important}.bg-red-30{--background:var(--red-30);background:var(--red-30)!important}.bg-red-20{--background:var(--red-20);background:var(--red-20)!important}.bg-red-10{--background:var(--red-10);background:var(--red-10)!important}.bg-red-5{--background:var(--red-5);background:var(--red-5)!important}.bg-red-cool-90{--background:var(--red-cool-90);background:var(--red-cool-90)!important}.bg-red-cool-80{--background:var(--red-cool-80);background:var(--red-cool-80)!important}.bg-red-cool-70{--background:var(--red-cool-70);background:var(--red-cool-70)!important}.bg-red-cool-60{--background:var(--red-cool-60);background:var(--red-cool-60)!important}.bg-red-cool-50{--background:var(--red-cool-50);background:var(--red-cool-50)!important}.bg-red-cool-40{--background:var(--red-cool-40);background:var(--red-cool-40)!important}.bg-red-cool-30{--background:var(--red-cool-30);background:var(--red-cool-30)!important}.bg-red-cool-20{--background:var(--red-cool-20);background:var(--red-cool-20)!important}.bg-red-cool-10{--background:var(--red-cool-10);background:var(--red-cool-10)!important}.bg-red-cool-5{--background:var(--red-cool-5);background:var(--red-cool-5)!important}.bg-red-warm-90{--background:var(--red-warm-90);background:var(--red-warm-90)!important}.bg-red-warm-80{--background:var(--red-warm-80);background:var(--red-warm-80)!important}.bg-red-warm-70{--background:var(--red-warm-70);background:var(--red-warm-70)!important}.bg-red-warm-60{--background:var(--red-warm-60);background:var(--red-warm-60)!important}.bg-red-warm-50{--background:var(--red-warm-50);background:var(--red-warm-50)!important}.bg-red-warm-40{--background:var(--red-warm-40);background:var(--red-warm-40)!important}.bg-red-warm-30{--background:var(--red-warm-30);background:var(--red-warm-30)!important}.bg-red-warm-20{--background:var(--red-warm-20);background:var(--red-warm-20)!important}.bg-red-warm-10{--background:var(--red-warm-10);background:var(--red-warm-10)!important}.bg-red-warm-5{--background:var(--red-warm-5);background:var(--red-warm-5)!important}.bg-red-vivid-80{--background:var(--red-vivid-80);background:var(--red-vivid-80)!important}.bg-red-vivid-70{--background:var(--red-vivid-70);background:var(--red-vivid-70)!important}.bg-red-vivid-60{--background:var(--red-vivid-60);background:var(--red-vivid-60)!important}.bg-red-vivid-50{--background:var(--red-vivid-50);background:var(--red-vivid-50)!important}.bg-red-vivid-40{--background:var(--red-vivid-40);background:var(--red-vivid-40)!important}.bg-red-vivid-30{--background:var(--red-vivid-30);background:var(--red-vivid-30)!important}.bg-red-vivid-20{--background:var(--red-vivid-20);background:var(--red-vivid-20)!important}.bg-red-vivid-10{--background:var(--red-vivid-10);background:var(--red-vivid-10)!important}.bg-red-vivid-5{--background:var(--red-vivid-5);background:var(--red-vivid-5)!important}.bg-red-cool-vivid-80{--background:var(--red-cool-vivid-80);background:var(--red-cool-vivid-80)!important}.bg-red-cool-vivid-70{--background:var(--red-cool-vivid-70);background:var(--red-cool-vivid-70)!important}.bg-red-cool-vivid-60{--background:var(--red-cool-vivid-60);background:var(--red-cool-vivid-60)!important}.bg-red-cool-vivid-50{--background:var(--red-cool-vivid-50);background:var(--red-cool-vivid-50)!important}.bg-red-cool-vivid-40{--background:var(--red-cool-vivid-40);background:var(--red-cool-vivid-40)!important}.bg-red-cool-vivid-30{--background:var(--red-cool-vivid-30);background:var(--red-cool-vivid-30)!important}.bg-red-cool-vivid-20{--background:var(--red-cool-vivid-20);background:var(--red-cool-vivid-20)!important}.bg-red-cool-vivid-10{--background:var(--red-cool-vivid-10);background:var(--red-cool-vivid-10)!important}.bg-red-cool-vivid-5{--background:var(--red-cool-vivid-5);background:var(--red-cool-vivid-5)!important}.bg-red-warm-vivid-80{--background:var(--red-warm-vivid-80);background:var(--red-warm-vivid-80)!important}.bg-red-warm-vivid-70{--background:var(--red-warm-vivid-70);background:var(--red-warm-vivid-70)!important}.bg-red-warm-vivid-60{--background:var(--red-warm-vivid-60);background:var(--red-warm-vivid-60)!important}.bg-red-warm-vivid-50{--background:var(--red-warm-vivid-50);background:var(--red-warm-vivid-50)!important}.bg-red-warm-vivid-40{--background:var(--red-warm-vivid-40);background:var(--red-warm-vivid-40)!important}.bg-red-warm-vivid-30{--background:var(--red-warm-vivid-30);background:var(--red-warm-vivid-30)!important}.bg-red-warm-vivid-20{--background:var(--red-warm-vivid-20);background:var(--red-warm-vivid-20)!important}.bg-red-warm-vivid-10{--background:var(--red-warm-vivid-10);background:var(--red-warm-vivid-10)!important}.bg-red-warm-vivid-5{--background:var(--red-warm-vivid-5);background:var(--red-warm-vivid-5)!important}.bg-violet-90{--background:var(--violet-90);background:var(--violet-90)!important}.bg-violet-80{--background:var(--violet-80);background:var(--violet-80)!important}.bg-violet-70{--background:var(--violet-70);background:var(--violet-70)!important}.bg-violet-60{--background:var(--violet-60);background:var(--violet-60)!important}.bg-violet-50{--background:var(--violet-50);background:var(--violet-50)!important}.bg-violet-40{--background:var(--violet-40);background:var(--violet-40)!important}.bg-violet-30{--background:var(--violet-30);background:var(--violet-30)!important}.bg-violet-20{--background:var(--violet-20);background:var(--violet-20)!important}.bg-violet-10{--background:var(--violet-10);background:var(--violet-10)!important}.bg-violet-5{--background:var(--violet-5);background:var(--violet-5)!important}.bg-violet-warm-90{--background:var(--violet-warm-90);background:var(--violet-warm-90)!important}.bg-violet-warm-80{--background:var(--violet-warm-80);background:var(--violet-warm-80)!important}.bg-violet-warm-70{--background:var(--violet-warm-70);background:var(--violet-warm-70)!important}.bg-violet-warm-60{--background:var(--violet-warm-60);background:var(--violet-warm-60)!important}.bg-violet-warm-50{--background:var(--violet-warm-50);background:var(--violet-warm-50)!important}.bg-violet-warm-40{--background:var(--violet-warm-40);background:var(--violet-warm-40)!important}.bg-violet-warm-30{--background:var(--violet-warm-30);background:var(--violet-warm-30)!important}.bg-violet-warm-20{--background:var(--violet-warm-20);background:var(--violet-warm-20)!important}.bg-violet-warm-10{--background:var(--violet-warm-10);background:var(--violet-warm-10)!important}.bg-violet-warm-5{--background:var(--violet-warm-5);background:var(--violet-warm-5)!important}.bg-violet-vivid-80{--background:var(--violet-vivid-80);background:var(--violet-vivid-80)!important}.bg-violet-vivid-70{--background:var(--violet-vivid-70);background:var(--violet-vivid-70)!important}.bg-violet-vivid-60{--background:var(--violet-vivid-60);background:var(--violet-vivid-60)!important}.bg-violet-vivid-50{--background:var(--violet-vivid-50);background:var(--violet-vivid-50)!important}.bg-violet-vivid-40{--background:var(--violet-vivid-40);background:var(--violet-vivid-40)!important}.bg-violet-vivid-30{--background:var(--violet-vivid-30);background:var(--violet-vivid-30)!important}.bg-violet-vivid-20{--background:var(--violet-vivid-20);background:var(--violet-vivid-20)!important}.bg-violet-vivid-10{--background:var(--violet-vivid-10);background:var(--violet-vivid-10)!important}.bg-violet-vivid-5{--background:var(--violet-vivid-5);background:var(--violet-vivid-5)!important}.bg-violet-warm-vivid-80{--background:var(--violet-warm-vivid-80);background:var(--violet-warm-vivid-80)!important}.bg-violet-warm-vivid-70{--background:var(--violet-warm-vivid-70);background:var(--violet-warm-vivid-70)!important}.bg-violet-warm-vivid-60{--background:var(--violet-warm-vivid-60);background:var(--violet-warm-vivid-60)!important}.bg-violet-warm-vivid-50{--background:var(--violet-warm-vivid-50);background:var(--violet-warm-vivid-50)!important}.bg-violet-warm-vivid-40{--background:var(--violet-warm-vivid-40);background:var(--violet-warm-vivid-40)!important}.bg-violet-warm-vivid-30{--background:var(--violet-warm-vivid-30);background:var(--violet-warm-vivid-30)!important}.bg-violet-warm-vivid-20{--background:var(--violet-warm-vivid-20);background:var(--violet-warm-vivid-20)!important}.bg-violet-warm-vivid-10{--background:var(--violet-warm-vivid-10);background:var(--violet-warm-vivid-10)!important}.bg-violet-warm-vivid-5{--background:var(--violet-warm-vivid-5);background:var(--violet-warm-vivid-5)!important}.bg-yellow-90{--background:var(--yellow-90);background:var(--yellow-90)!important}.bg-yellow-80{--background:var(--yellow-80);background:var(--yellow-80)!important}.bg-yellow-70{--background:var(--yellow-70);background:var(--yellow-70)!important}.bg-yellow-60{--background:var(--yellow-60);background:var(--yellow-60)!important}.bg-yellow-50{--background:var(--yellow-50);background:var(--yellow-50)!important}.bg-yellow-40{--background:var(--yellow-40);background:var(--yellow-40)!important}.bg-yellow-30{--background:var(--yellow-30);background:var(--yellow-30)!important}.bg-yellow-20{--background:var(--yellow-20);background:var(--yellow-20)!important}.bg-yellow-10{--background:var(--yellow-10);background:var(--yellow-10)!important}.bg-yellow-5{--background:var(--yellow-5);background:var(--yellow-5)!important}.bg-yellow-vivid-80{--background:var(--yellow-vivid-80);background:var(--yellow-vivid-80)!important}.bg-yellow-vivid-70{--background:var(--yellow-vivid-70);background:var(--yellow-vivid-70)!important}.bg-yellow-vivid-60{--background:var(--yellow-vivid-60);background:var(--yellow-vivid-60)!important}.bg-yellow-vivid-50{--background:var(--yellow-vivid-50);background:var(--yellow-vivid-50)!important}.bg-yellow-vivid-40{--background:var(--yellow-vivid-40);background:var(--yellow-vivid-40)!important}.bg-yellow-vivid-30{--background:var(--yellow-vivid-30);background:var(--yellow-vivid-30)!important}.bg-yellow-vivid-20{--background:var(--yellow-vivid-20);background:var(--yellow-vivid-20)!important}.bg-yellow-vivid-10{--background:var(--yellow-vivid-10);background:var(--yellow-vivid-10)!important}.bg-yellow-vivid-5{--background:var(--yellow-vivid-5);background:var(--yellow-vivid-5)!important}.bg-interactive{--background:var(--interactive);background:var(--interactive)!important}.bg-interactive-dark{--background:var(--interactive-dark);background:var(--interactive-dark)!important}.bg-danger{--background:var(--danger);background:var(--danger)!important}.bg-warning{--background:var(--warning);background:var(--warning)!important}.bg-success{--background:var(--success);background:var(--success)!important}.bg-info{--background:var(--info);background:var(--info)!important}.bg-primary-pastel-01{background:var(--color-primary-pastel-01)!important}.bg-primary-pastel-02{background:var(--color-primary-pastel-02)!important}.bg-primary-lighten-01{background:var(--color-primary-lighten-01)!important}.bg-primary-lighten-01,.bg-primary-lighten-02{--color:var(--color-dark);--color-rgb:var(--color-dark-rgb);--text-color:var(--color-dark);--interactive:var(--interactive-dark);--interactive-rgb:var(--interactive-dark-rgb);--visited:var(--visited-dark);--hover:var(--hover-dark);--pressed:var(--pressed-dark);--focus-color:var(--focus-color-dark);--focus:var(--focus-color-dark)}.bg-primary-lighten-02{background:var(--color-primary-lighten-02)!important}.bg-primary-default{--color:var(--color-dark);--color-rgb:var(--color-dark-rgb);--text-color:var(--color-dark);--interactive:var(--interactive-dark);--interactive-rgb:var(--interactive-dark-rgb);--visited:var(--visited-dark);--hover:var(--hover-dark);--pressed:var(--pressed-dark);--focus-color:var(--focus-color-dark);--focus:var(--focus-color-dark);background:var(--color-primary-default)!important}.text-primary-default{color:var(--color-primary-default)!important}.bg-primary-darken-01{background:var(--color-primary-darken-01)!important}.bg-primary-darken-01,.bg-primary-darken-02{--color:var(--color-dark);--color-rgb:var(--color-dark-rgb);--text-color:var(--color-dark);--interactive:var(--interactive-dark);--interactive-rgb:var(--interactive-dark-rgb);--visited:var(--visited-dark);--hover:var(--hover-dark);--pressed:var(--pressed-dark);--focus-color:var(--focus-color-dark);--focus:var(--focus-color-dark)}.bg-primary-darken-02{background:var(--color-primary-darken-02)!important}.bg-secondary-01{background:var(--color-secondary-01)!important}.bg-secondary-02{background:var(--color-secondary-02)!important}.bg-secondary-03{background:var(--color-secondary-03)!important}.bg-secondary-04{background:var(--color-secondary-04)!important}.bg-secondary-05{background:var(--color-secondary-05)!important}.bg-secondary-06{background:var(--color-secondary-06)!important}.bg-secondary-06,.bg-secondary-07{--color:var(--color-dark);--color-rgb:var(--color-dark-rgb);--text-color:var(--color-dark);--interactive:var(--interactive-dark);--interactive-rgb:var(--interactive-dark-rgb);--visited:var(--visited-dark);--hover:var(--hover-dark);--pressed:var(--pressed-dark);--focus-color:var(--focus-color-dark);--focus:var(--focus-color-dark)}.bg-secondary-07{background:var(--color-secondary-07)!important}.bg-secondary-08{background:var(--color-secondary-08)!important}.bg-secondary-08,.bg-secondary-09{--color:var(--color-dark);--color-rgb:var(--color-dark-rgb);--text-color:var(--color-dark);--interactive:var(--interactive-dark);--interactive-rgb:var(--interactive-dark-rgb);--visited:var(--visited-dark);--hover:var(--hover-dark);--pressed:var(--pressed-dark);--focus-color:var(--focus-color-dark);--focus:var(--focus-color-dark)}.bg-secondary-09{background:var(--color-secondary-09)!important}.bg-highlight{background:var(--color-highlight)!important}.bg-highlight,.bg-support-01{--color:var(--color-dark);--color-rgb:var(--color-dark-rgb);--text-color:var(--color-dark);--interactive:var(--interactive-dark);--interactive-rgb:var(--interactive-dark-rgb);--visited:var(--visited-dark);--hover:var(--hover-dark);--pressed:var(--pressed-dark);--focus-color:var(--focus-color-dark);--focus:var(--focus-color-dark)}.bg-support-01{background:var(--color-support-01)!important}.bg-support-02{background:var(--color-support-02)!important}.bg-support-03{background:var(--color-support-03)!important}.bg-support-03,.bg-support-04{--color:var(--color-dark);--color-rgb:var(--color-dark-rgb);--text-color:var(--color-dark);--interactive:var(--interactive-dark);--interactive-rgb:var(--interactive-dark-rgb);--visited:var(--visited-dark);--hover:var(--hover-dark);--pressed:var(--pressed-dark);--focus-color:var(--focus-color-dark);--focus:var(--focus-color-dark)}.bg-support-04{background:var(--color-support-04)!important}.bg-support-05{background:var(--color-support-05)!important}.bg-support-06{background:var(--color-support-06)!important}.bg-support-07{background:var(--color-support-07)!important}.bg-support-07,.bg-support-08{--color:var(--color-dark);--color-rgb:var(--color-dark-rgb);--text-color:var(--color-dark);--interactive:var(--interactive-dark);--interactive-rgb:var(--interactive-dark-rgb);--visited:var(--visited-dark);--hover:var(--hover-dark);--pressed:var(--pressed-dark);--focus-color:var(--focus-color-dark);--focus:var(--focus-color-dark)}.bg-support-08{background:var(--color-support-08)!important}.bg-support-09{background:var(--color-support-09)!important}.bg-support-10{background:var(--color-support-10)!important}.bg-support-11{background:var(--color-support-11)!important}.text-nowrap{white-space:nowrap!important}.text-base{font-size:var(--font-size-scale-base)!important}.disabled,[disabled]{cursor:not-allowed;opacity:var(--disabled)}.disabled *,[disabled] *{pointer-events:none}[data-toggle=dropdown]+*{position:absolute}.dropdown{position:relative}.dropdown [data-toggle=dropdown]+*{-webkit-box-shadow:var(--surface-shadow-sm);box-shadow:var(--surface-shadow-sm);left:0;position:absolute;top:100%}.dropdown>.br-notification{left:auto;right:0}.dropdown .br-item{--color:var(--color-light);--color-rgb:var(--color-light-rgb);--text-color:var(--color-light);--interactive:var(--interactive-light);--interactive-rgb:var(--color-rgb);--visited:var(--visited-light);--hover:var(--hover-light);--pressed:var(--pressed-light);--focus-color:var(--focus-color-light);--focus:var(--focus-color-light);--item-padding-y:var(--spacing-scale-2x);background-color:var(--background-light);color:var(--color)}.dropdown .br-item:not(:last-child){border-bottom:1px solid var(--border-color)}.dropdown .br-item.selected{--color:var(--color-dark);--color-rgb:var(--color-dark-rgb);--text-color:var(--color-dark);--interactive:var(--interactive-dark);--interactive-rgb:var(--interactive-dark-rgb);--visited:var(--visited-dark);--hover:var(--hover-dark);--pressed:var(--pressed-dark);--focus-color:var(--focus-color-dark);--focus:var(--focus-color-dark)}.br-textarea{--textarea-padding:var(--textarea-medium);--textarea-small:var(--spacing-scale-base);--textarea-medium:var(--spacing-scale-baseh);--textarea-large:var(--spacing-scale-2x);color:var(--color)}.br-textarea label{display:inline-block;margin-bottom:var(--spacing-scale-half)}.br-textarea textarea{background:var(--background-light);border:1px solid var(--border-color-alternative);border-radius:6px;color:var(--color);display:block;font-size:var(--font-size-scale-up-01);font-weight:var(--font-weight-medium);padding:var(--textarea-padding);width:100%}.br-textarea.small textarea{--textarea-padding:var(--textarea-small)}.br-textarea.medium textarea{--textarea-padding:var(--textarea-medium)}.br-textarea.large textarea{--textarea-padding:var(--textarea-large)}.br-textarea.success textarea{border-color:var(--success);border-width:2px}.br-textarea.danger textarea{border-color:var(--danger);border-width:2px}.br-textarea.warning textarea{border-color:var(--warning);border-width:2px}.br-textarea.info textarea{border-color:var(--info);border-width:2px}.br-textarea textarea:focus,.br-textarea textarea:focus-visible{border-color:var(--focus)!important;-webkit-box-shadow:0 0 0 var(--surface-width-md) var(--focus);box-shadow:0 0 0 var(--surface-width-md) var(--focus);outline:none}.br-textarea textarea:hover:not(:disabled):hover{background-image:-webkit-gradient(linear,left top,left bottom,from(rgba(var(--color-rgb),var(--hover))),to(rgba(var(--color-rgb),var(--hover))));background-image:-webkit-gradient(linear,left top, left bottom,from(rgba(var(--color-rgb),var(--hover))),to(rgba(var(--color-rgb),var(--hover))));background-image:linear-gradient(rgba(var(--color-rgb),var(--hover)),rgba(var(--color-rgb),var(--hover)))}.br-textarea.dark-mode,.br-textarea.dark-mode label{--color:var(--color-dark);--focus-color:var(--focus-color-dark)}.br-textarea.dark-mode textarea{color:var(--color-light)}:host{-webkit-box-sizing:border-box;box-sizing:border-box;display:block;font-family:Rawline,Raleway,sans-serif}";
      var d = g;
      var t = r("br_textarea", /** @class */ function() {
        function class_1(r) {
          var i = this;
          /**
                     * Identificador único.
                     * Caso não seja fornecido, um ID gerado automaticamente será usado.
                     */          this.customId = "br-textarea-".concat(e++);
          /**
                     * Indica se o textarea está desabilitado. Quando verdadeiro, o usuário não pode interagir com o campo.
                     */          this.disabled = false;
          /**
                     * Número máximo de caracteres permitidos no textarea. Se definido como 0, não há limite.
                     */          this.maxlength = 0;
          /**
                     * Mostra o contador com a quantidade máxima de caracteres.
                     */          this.showCounter = false;
          /**
                     * Ajusta a densidade do componente, podendo ser 'small', 'medium' ou 'large'.
                     */          this.density = "medium";
          /**
                     * Se verdadeiro, o rótulo e o input estarão na mesma linha (layout inline).
                     */          this.isInline = false;
          this.handleInput = function(r) {
            var a;
            i.value = r.target.value;
            i.currentLength = (a = i.value) === null || a === void 0 ? void 0 : a.length;
            i.valueChange.emit(i.value);
          };
          a(this, r);
          this.valueChange = o(this, "valueChange", 7);
          if (r.$hostElement$["s-ei"]) {
            this.elementInternals = r.$hostElement$["s-ei"];
          } else {
            this.elementInternals = r.$hostElement$.attachInternals();
            r.$hostElement$["s-ei"] = this.elementInternals;
          }
        }
        Object.defineProperty(class_1.prototype, "el", {
          get: function() {
            return i(this);
          },
          enumerable: false,
          configurable: true
        });
        class_1.prototype.componentWillLoad = function() {
          var r;
          this.currentLength = (r = this.value) === null || r === void 0 ? void 0 : r.length;
        };
        class_1.prototype.valueChanged = function() {
          var r;
          this.currentLength = (r = this.value) === null || r === void 0 ? void 0 : r.length;
        };
        /**
                 * Define um novo valor para o textarea.
                 * @param newValue - O novo valor a ser definido.
                 */        class_1.prototype.setValue = function(r) {
          return __awaiter(this, void 0, void 0, (function() {
            var a;
            return __generator(this, (function(o) {
              this.value = r;
              this.currentLength = (a = this.value) === null || a === void 0 ? void 0 : a.length;
              this.valueChange.emit(this.value);
              return [ 2 /*return*/ ];
            }));
          }));
        };
        class_1.prototype.getCssClassMap = function() {
          return {
            "br-textarea": true,
            small: this.density === "small",
            medium: this.density === "medium",
            large: this.density === "large",
            success: this.state === "success",
            danger: this.state === "danger",
            warning: this.state === "warning"
          };
        };
        class_1.prototype.render = function() {
          var r = this.maxlength - this.currentLength;
          var a = this.currentLength > 0;
          return n(v, {
            key: "ac1866af34c873f58c62e123c921297033522dbf"
          }, n("div", {
            key: "5cb08a8c2c7eb394db69b9cc0dcefef2129879ca",
            class: this.getCssClassMap()
          }, n("div", {
            key: "623ba97fb573e290392fb280b9bf11c3d3b7c447",
            class: this.isInline ? "row" : ""
          }, this.isInline ? n("div", {
            class: "col-auto pt-half"
          }, n("label", {
            htmlFor: this.customId
          }, this.label)) : n("label", {
            htmlFor: this.customId
          }, this.label), n("div", {
            key: "639634c584716816515daeba558647df4c4998d3",
            class: this.isInline ? "col" : ""
          }, n("textarea", __assign({
            key: "dcfbd93469db0f0d5b7bb71cffcc17abaf45e8bf",
            id: this.customId,
            value: this.value,
            placeholder: this.placeholder,
            disabled: this.disabled,
            onInput: this.handleInput
          }, this.maxlength > 0 ? {
            maxLength: this.maxlength
          } : {})), n("div", {
            key: "42b4ae60074d65c191cfbf4296c7b060893fbc92",
            class: "text-base mt-1"
          }, this.showCounter && n("div", {
            key: "e0e3cda8739c575a808b744a36e3f200b5b0748a"
          }, a ? n("span", {
            class: "restantes",
            "aria-live": "polite",
            role: "status",
            id: "limitmax"
          }, "Restam ", n("strong", null, r), " caracteres") : n("span", {
            class: "limit",
            "aria-live": "polite"
          }, "Limite máximo de ", n("strong", null, this.maxlength), " caracteres"))), n("slot", {
            key: "f83bfc1a6ea75569cd8134a35aafbcd9143d96ba"
          })))));
        };
        Object.defineProperty(class_1, "formAssociated", {
          get: function() {
            return true;
          },
          enumerable: false,
          configurable: true
        });
        Object.defineProperty(class_1, "watchers", {
          get: function() {
            return {
              value: [ "valueChanged" ]
            };
          },
          enumerable: false,
          configurable: true
        });
        return class_1;
      }());
      var e = 0;
      t.style = d;
    }
  };
}));
//# sourceMappingURL=module.js.map